level,algorithm,sign_s,verify_s
0,rsa:512,12697.6,167032.5
0,rsa:1024,3717.6,59686.4
0,rsa:2048,506.1,17425.9
1,rsa:3072,160.6,8094.1
0,rsa:4096,71.7,4652.0
3,rsa:7680,9.1,1348.4
5,rsa:15360,1.5,343.8
1,ed25519,12662.3,3799.5
3,ed448,1771.8,980.3
1,falcon512,120.3,10435.7
0,p256_falcon512,119.4,3561.2
0,rsa3072_falcon512,68.6,4489.7
5,falcon1024,55.0,5142.2
0,p521_falcon1024,44.1,269.4
1,dilithium2,1126.8,5078.0
0,p256_dilithium2,1049.8,2607.0
0,rsa3072_dilithium2,139.9,3071.6
3,dilithium3,696.3,3170.8
0,p384_dilithium3,308.7,552.2
5,dilithium5,583.1,1977.2
0,p521_dilithium5,161.1,249.9
0,dilithium2_aes,861.7,2739.0
0,p256_dilithium2_aes,800.5,1815.1
0,rsa3072_dilithium2_aes,134.9,2025.6
0,dilithium3_aes,507.8,1590.4
0,p384_dilithium3_aes,267.3,475.4
0,dilithium5_aes,397.9,918.0
0,p521_dilithium5_aes,141.1,217.1
0,picnicl1full,257.7,339.2
0,p256_picnicl1full,253.7,319.7
0,rsa3072_picnicl1full,98.5,324.0
0,picnic3l1,52.3,65.0
0,p256_picnic3l1,52.3,64.1
0,rsa3072_picnic3l1,39.6,64.4
1,rainbowIclassic,294.2,277.6
0,p256_rainbowIclassic,289.1,264.8
0,rsa3072_rainbowIclassic,103.9,268.2
3,rainbowIIIclassic,32.9,31.5
0,p384_rainbowIIIclassic,31.0,29.9
5,rainbowVclassic,14.9,14.4
0,p521_rainbowVclassic,12.7,13.7
0,sphincsharaka128frobust,61.9,992.9
0,p256_sphincsharaka128frobust,61.6,879.2
0,rsa3072_sphincsharaka128frobust,44.6,901.9
0,sphincssha256128frobust,11.5,190.4
0,p256_sphincssha256128frobust,11.5,192.1
0,rsa3072_sphincssha256128frobust,10.7,187.7
1,sphincsshake256128frobust,4.6,82.3
0,p256_sphincsshake256128frobust,4.6,82.4
0,rsa3072_sphincsshake256128frobust,4.5,79.2
3,sphincsshake256192frobust,2.9,55.0
0,p384_sphincsshake256192frobust,2.9,50.2
5,sphincsshake256256frobust,1.5,54.1
0,p521_sphincsshake256256frobust,1.4,44.7