nist_level,kem_alg,sig_alg,connections_sec
1,X25519,rsa:3072,1275.49
1,X25519,ed25519,1085.42
1,X25519,falcon512,1473.68
1,X25519,dilithium2,1122.69
1,X25519,rainbowIclassic,146.93
1,X25519,sphincsshake256128frobust,79.37
1,P-256,rsa:3072,1222.61
1,P-256,ed25519,961.45
1,P-256,falcon512,1227.78
1,P-256,dilithium2,1089.07
1,P-256,rainbowIclassic,144.02
1,P-256,sphincsshake256128frobust,76.92
1,lightsaber,rsa:3072,1412.63
1,lightsaber,ed25519,1219.90
1,lightsaber,falcon512,1454.43
1,lightsaber,dilithium2,1248.09
1,lightsaber,rainbowIclassic,145.64
1,lightsaber,sphincsshake256128frobust,80.65
1,kyber512,rsa:3072,1259.81
1,kyber512,ed25519,1056.45
1,kyber512,falcon512,1285.39
1,kyber512,dilithium2,1106.53
1,kyber512,rainbowIclassic,143.28
1,kyber512,sphincsshake256128frobust,81.97
1,hqc128,rsa:3072,718.08
1,hqc128,ed25519,612.48
1,hqc128,falcon512,656.36
1,hqc128,dilithium2,591.04
1,hqc128,rainbowIclassic,134.67
1,hqc128,sphincsshake256128frobust,73.53
1,sidhp434,rsa:3072,33.87
1,sidhp434,ed25519,33.79
1,sidhp434,falcon512,33.93
1,sidhp434,dilithium2,33.73
1,sidhp434,rainbowIclassic,29.27
1,sidhp434,sphincsshake256128frobust,24.22
3,X448,rsa:7680,350.00
3,X448,ed448,264.48
3,X448,dilithium3,402.66
3,X448,rainbowIIIclassic,24.49
3,X448,sphincsshake256192frobust,49.18
3,P-384,rsa:7680,197.67
3,P-384,ed448,142.23
3,P-384,dilithium3,197.98
3,P-384,rainbowIIIclassic,23.05
3,P-384,sphincsshake256192frobust,45.45
3,saber,rsa:7680,657.14
3,saber,ed448,525.60
3,saber,dilithium3,961.93
3,saber,rainbowIIIclassic,24.91
3,saber,sphincsshake256192frobust,53.33
3,kyber768,rsa:7680,562.50
3,kyber768,ed448,504.31
3,kyber768,dilithium3,886.32
3,kyber768,rainbowIIIclassic,24.70
3,kyber768,sphincsshake256192frobust,52.54
3,hqc192,rsa:7680,258.33
3,hqc192,ed448,247.42
3,hqc192,dilithium3,287.32
3,hqc192,rainbowIIIclassic,23.60
3,hqc192,sphincsshake256192frobust,46.97
3,sidhp610,rsa:7680,10.15
3,sidhp610,ed448,10.33
3,sidhp610,dilithium3,10.37
3,sidhp610,rainbowIIIclassic,7.35
3,sidhp610,sphincsshake256192frobust,8.77
5,P-521,rsa:15360,72.73
5,P-521,falcon1024,99.67
5,P-521,dilithium5,92.02
5,P-521,rainbowVclassic,10.57
5,P-521,sphincsshake256256frobust,36.59
5,firesaber,rsa:15360,228.57
5,firesaber,falcon1024,950.88
5,firesaber,dilithium5,687.08
5,firesaber,rainbowVclassic,11.66
5,firesaber,sphincsshake256256frobust,51.61
5,kyber1024,rsa:15360,228.57
5,kyber1024,falcon1024,896.55
5,kyber1024,dilithium5,636.49
5,kyber1024,rainbowVclassic,11.57
5,kyber1024,sphincsshake256256frobust,53.33
5,hqc256,rsa:15360,115.38
5,hqc256,falcon1024,196.25
5,hqc256,dilithium5,170.12
5,hqc256,rainbowVclassic,11.09
5,hqc256,sphincsshake256256frobust,42.86
5,sidhp751,rsa:15360,21.88
5,sidhp751,falcon1024,24.28
5,sidhp751,dilithium5,24.36
5,sidhp751,rainbowVclassic,7.94
5,sidhp751,sphincsshake256256frobust,16.87
