nist_level,kem_alg,sig_alg,connections_sec
1,X25519,rsa:3072,1275.73
1,X25519,ed25519,1095.11
1,X25519,falcon512,1461.04
1,X25519,dilithium2,1151.49
1,X25519,rainbowIclassic,144.30
1,X25519,sphincsshake256128frobust,78.12
1,P-256,rsa:3072,1254.55
1,P-256,ed25519,956.43
1,P-256,falcon512,1259.09
1,P-256,dilithium2,1082.51
1,P-256,rainbowIclassic,146.37
1,P-256,sphincsshake256128frobust,76.92
1,lightsaber,rsa:3072,1416.49
1,lightsaber,ed25519,1228.43
1,lightsaber,falcon512,1402.44
1,lightsaber,dilithium2,1211.94
1,lightsaber,rainbowIclassic,147.14
1,lightsaber,sphincsshake256128frobust,78.12
1,kyber512,rsa:3072,1284.47
1,kyber512,ed25519,1074.32
1,kyber512,falcon512,1284.27
1,kyber512,dilithium2,1095.86
1,kyber512,rainbowIclassic,145.45
1,kyber512,sphincsshake256128frobust,80.65
1,hqc128,rsa:3072,816.77
1,hqc128,ed25519,608.94
1,hqc128,falcon512,655.15
1,hqc128,dilithium2,592.95
1,hqc128,rainbowIclassic,137.01
1,hqc128,sphincsshake256128frobust,72.46
1,sidhp434,rsa:3072,34.19
1,sidhp434,ed25519,33.93
1,sidhp434,falcon512,33.78
1,sidhp434,dilithium2,34.00
1,sidhp434,rainbowIclassic,29.27
1,sidhp434,sphincsshake256128frobust,24.38
3,X448,rsa:7680,325.93
3,X448,ed448,265.20
3,X448,dilithium3,417.52
3,X448,rainbowIIIclassic,23.95
3,X448,sphincsshake256192frobust,50.00
3,P-384,rsa:7680,200.00
3,P-384,ed448,142.76
3,P-384,dilithium3,193.15
3,P-384,rainbowIIIclassic,23.05
3,P-384,sphincsshake256192frobust,45.45
3,saber,rsa:7680,640.00
3,saber,ed448,517.72
3,saber,dilithium3,955.50
3,saber,rainbowIIIclassic,24.96
3,saber,sphincsshake256192frobust,51.67
3,kyber768,rsa:7680,529.41
3,kyber768,ed448,492.70
3,kyber768,dilithium3,851.80
3,kyber768,rainbowIIIclassic,25.04
3,kyber768,sphincsshake256192frobust,52.54
3,hqc192,rsa:7680,261.11
3,hqc192,ed448,249.02
3,hqc192,dilithium3,289.30
3,hqc192,rainbowIIIclassic,23.37
3,hqc192,sphincsshake256192frobust,49.21
3,sidhp610,rsa:7680,10.12
3,sidhp610,ed448,10.31
3,sidhp610,dilithium3,10.34
3,sidhp610,rainbowIIIclassic,7.37
3,sidhp610,sphincsshake256192frobust,8.77
5,P-521,rsa:15360,76.19
5,P-521,falcon1024,99.66
5,P-521,dilithium5,92.01
5,P-521,rainbowVclassic,10.50
5,P-521,sphincsshake256256frobust,36.59
5,firesaber,rsa:15360,250.00
5,firesaber,falcon1024,916.95
5,firesaber,dilithium5,677.52
5,firesaber,rainbowVclassic,11.64
5,firesaber,sphincsshake256256frobust,50.00
5,kyber1024,rsa:15360,214.29
5,kyber1024,falcon1024,900.00
5,kyber1024,dilithium5,637.70
5,kyber1024,rainbowVclassic,11.67
5,kyber1024,sphincsshake256256frobust,51.61
5,hqc256,rsa:15360,106.67
5,hqc256,falcon1024,190.72
5,hqc256,dilithium5,170.08
5,hqc256,rainbowVclassic,11.09
5,hqc256,sphincsshake256256frobust,42.86
5,sidhp751,rsa:15360,22.58
5,sidhp751,falcon1024,24.40
5,sidhp751,dilithium5,24.36
5,sidhp751,rainbowVclassic,7.96
5,sidhp751,sphincsshake256256frobust,16.87
